{"count":53,"next":"http://qssun.dyndns.org:8085/personnel/api/employees/?page=2&page_size=1","previous":null,"msg":"","code":0,"data":[{"id":118,"emp_code":"04512371","first_name":"MOHAMED ATTIA","last_name":null,"nickname":"","format_name":"04512371 MOHAMED ATTIA ","photo":"/auth_files/photo/04512371.jpg","full_name":"MOHAMED ATTIA ","device_password":null,"card_no":null,"department":{"id":2,"dept_code":"2","dept_name":"فترة"},"position":null,"hire_date":"2025-11-27","gender":null,"birthday":null,"verify_mode":0,"emp_type":null,"contact_tel":"","office_tel":null,"mobile":"","national":"","city":"","address":"","postcode":"","email":null,"enroll_sn":"RKQ4235101617","ssn":null,"religion":"","attemployee":{"id":118,"enable_attendance":true,"enable_overtime":true,"enable_holiday":true,"enable_schedule":true},"dev_privilege":0,"area":[{"id":3,"area_code":"3","area_name":"Qassim"}],"app_status":0,"app_role":1,"update_time":"2025-11-27 10:11:24","fingerprint":"Ver 10:1","face":"Ver 7.0:1","palm":"-","vl_face":"-"}]}