{"count":27728,"next":"http://qssun.dyndns.org:8085/iclock/api/transactions/?page=2&page_size=1","previous":null,"msg":"","code":0,"data":[{"id":1,"emp":18,"emp_code":"1","first_name":"Lutf Hedayyan","last_name":null,"department":"فترتين","position":null,"punch_time":"2024-09-21 17:05:55","punch_state":"0","punch_state_display":"Check In","verify_type":1,"verify_type_display":"Fingerprint","work_code":"0","gps_location":null,"area_alias":"Riyadh","terminal_sn":"RKQ4235101617","temperature":0.0,"is_mask":"No","terminal_alias":"Auto add","upload_time":"2024-09-26 15:59:33"}]}